﻿p, user1, add-expense
p, user1, edit-expense
p, user1, submit-expense
p, user1, view-expense
p, user2, add-expense
p, user2, edit-expense
p, user3, view-expense
p, user4, add-expense
p, user4, edit-expense

g, user1, user
g, user2, team-manager
g, user3, branch-manager
g, user4, administrator